{
  "id": "investmentExperience",
  "questions": [
    {
      "id": "1",
      "content": "What's your gender?",
      "answerType": "multipleChoice",
      "choices": [
        {
          "id": "m",
          "label": "Male"
        },
        {
          "id": "f",
          "label": "Female"
        }
      ]
    },
    {
      "id": "2",
      "content": "What's your date of birth?",
      "answerType": "date"
    },
    {
      "id": "3",
      "content": "What's your current pension pot value?",
      "answerType": "number"
    },
    {
      "id": "4",
      "content": "At what age would you like to retire?",
      "answerType": "number"
    },
    {
      "id": "5",
      "content": "What's your first name?",
      "answerType": "text"
    },
    {
      "id": "6",
      "content": "What's your last name?",
      "answerType": "text"
    },
    {
      "id": "7",
      "content": "Thanks, we can now prepare your custom countdown report",
      "answerType": "button",
      "buttonLabel": "Download",
      "api": "countdownReport",
      "apiMapping": {
        "1": "gender",
        "2": "dateOfBirth",
        "3": "fundValue",
        "4": "selectedRetirementAge",
        "5": "firstName",
        "6": "lastName"
      }
    },
    {
      "id": "8",
      "content": "Enjoy",
      "endState": true,
      "answerType": "button",
      "buttonLabel": "Home"
    }
  ]
}
