{
  "id": "atr",
  "questions": [
    {
      "id": "1",
      "content": "People who know me would describe me as a cautious person",
      "avatar": "john",
      "answerType": "multipleChoice",
      "choices": [
        { "id": "strongly_agree", "label": "Strongly agree" },
        { "id": "agree", "label": "Agree" },
        { "id": "no_opinion", "label": "No strong opinion" },
        { "id": "disagree", "label": "Disagree" },
        { "id": "strongly_disagree", "label": "Strongly disagree" }
      ]
    },
    {
      "id": "2",
      "content": "I feel comfortable about investing in the stock market",
      "answerType": "multipleChoice",
      "avatar": "john",
      "choices": [
        { "id": "strongly_agree", "label": "Strongly agree" },
        { "id": "agree", "label": "Agree" },
        { "id": "no_opinion", "label": "No strong opinion" },
        { "id": "disagree", "label": "Disagree" },
        { "id": "strongly_disagree", "label": "Strongly disagree" }
      ]
    },
    {
      "id": "3",
      "content": "I generally look for safer investments, even if that means lower returns",
      "answerType": "multipleChoice",
      "avatar": "john",
      "choices": [
        { "id": "strongly_agree", "label": "Strongly agree" },
        { "id": "agree", "label": "Agree" },
        { "id": "no_opinion", "label": "No strong opinion" },
        { "id": "disagree", "label": "Disagree" },
        { "id": "strongly_disagree", "label": "Strongly disagree" }
      ]
    },
    {
      "id": "4",
      "content": "Usually it takes me a long time to make up my mind on investment decisions",
      "answerType": "multipleChoice",
      "avatar": "john",
      "choices": [
        { "id": "strongly_agree", "label": "Strongly agree" },
        { "id": "agree", "label": "Agree" },
        { "id": "no_opinion", "label": "No strong opinion" },
        { "id": "disagree", "label": "Disagree" },
        { "id": "strongly_disagree", "label": "Strongly disagree" }
      ]
    },
    {
      "id": "5",
      "content": "I associate the word 'risk' with the idea of 'opportunity'",
      "answerType": "multipleChoice",
      "avatar": "john",
      "choices": [
        { "id": "strongly_agree", "label": "Strongly agree" },
        { "id": "agree", "label": "Agree" },
        { "id": "no_opinion", "label": "No strong opinion" },
        { "id": "disagree", "label": "Disagree" },
        { "id": "strongly_disagree", "label": "Strongly disagree" }
      ]
    },
    {
      "id": "6",
      "content": "I generally prefer bank deposits to riskier investments",
      "answerType": "multipleChoice",
      "avatar": "john",
      "choices": [
        { "id": "strongly_agree", "label": "Strongly agree" },
        { "id": "agree", "label": "Agree" },
        { "id": "no_opinion", "label": "No strong opinion" },
        { "id": "disagree", "label": "Disagree" },
        { "id": "strongly_disagree", "label": "Strongly disagree" }
      ]
    },
    {
      "id": "7",
      "content": "I find investment matters easy to understand",
      "answerType": "multipleChoice",
      "avatar": "john",
      "choices": [
        { "id": "strongly_agree", "label": "Strongly agree" },
        { "id": "agree", "label": "Agree" },
        { "id": "no_opinion", "label": "No strong opinion" },
        { "id": "disagree", "label": "Disagree" },
        { "id": "strongly_disagree", "label": "Strongly disagree" }
      ]
    },
    {
      "id": "8",
      "content": "I'm willing to take substantial investment risk to earn substantial returns",
      "answerType": "multipleChoice",
      "avatar": "john",
      "choices": [
        { "id": "strongly_agree", "label": "Strongly agree" },
        { "id": "agree", "label": "Agree" },
        { "id": "no_opinion", "label": "No strong opinion" },
        { "id": "disagree", "label": "Disagree" },
        { "id": "strongly_disagree", "label": "Strongly disagree" }
      ]
    },
    {
      "id": "9",
      "content": "I've little experience of investing in stocks, shares, or investment funds",
      "answerType": "multipleChoice",
      "avatar": "john",
      "choices": [
        { "id": "strongly_agree", "label": "Strongly agree" },
        { "id": "agree", "label": "Agree" },
        { "id": "no_opinion", "label": "No strong opinion" },
        { "id": "disagree", "label": "Disagree" },
        { "id": "strongly_disagree", "label": "Strongly disagree" }
      ]
    },
    {
      "id": "10",
      "content": "I tend to be anxious about the investment decisions I've made",
      "answerType": "multipleChoice",
      "avatar": "john",
      "choices": [
        { "id": "strongly_agree", "label": "Strongly agree" },
        { "id": "agree", "label": "Agree" },
        { "id": "no_opinion", "label": "No strong opinion" },
        { "id": "disagree", "label": "Disagree" },
        { "id": "strongly_disagree", "label": "Strongly disagree" }
      ]
    },
    {
      "id": "11",
      "content": "I'd rather take my chances with higher risk investments than have to save more",
      "answerType": "multipleChoice",
      "avatar": "john",
      "choices": [
        { "id": "strongly_agree", "label": "Strongly agree" },
        { "id": "agree", "label": "Agree" },
        { "id": "no_opinion", "label": "No strong opinion" },
        { "id": "disagree", "label": "Disagree" },
        { "id": "strongly_disagree", "label": "Strongly disagree" }
      ]
    },
    {
      "id": "12",
      "content": "I'm not comfortable with the ups and downs of stock market investments",
      "answerType": "multipleChoice",
      "avatar": "john",
      "choices": [
        { "id": "strongly_agree", "label": "Strongly agree" },
        { "id": "agree", "label": "Agree" },
        { "id": "no_opinion", "label": "No strong opinion" },
        { "id": "disagree", "label": "Disagree" },
        { "id": "strongly_disagree", "label": "Strongly disagree" }
      ],
      "api": "atr",
      "apiMapping": {
        "1": "describe_as_cautious",
        "2": "comfortable_investing",
        "3": "prefer_safer_investments",
        "4": "long_time_to_decide",
        "5": "risk_equals_opportunity",
        "6": "prefer_bank_deposits",
        "7": "investment_easy_to_understand",
        "8": "willing_to_risk",
        "9": "little_investment_experience",
        "10": "anxious_about_decisions",
        "11": "prefer_high_risk_investments",
        "12": "concerned_about_volatility"
      },
      "apiResponseValueField": "profile",
      "contentToShowAfterAnswer": "Your risk profile is: {{apiResponseValue}}"
    }
  ]
}
