{
  "id": "pensionOptionsTriage",
  "questions": [
    {
      "id": "1",
      "content": "Let's look at your retirement options. To do that, I need a little more information from you...",
      "avatar": "john",
      "pause": 1200
    },
    {
      "id": "2",
      "answerType": "multipleChoice",
      "content": "How many pensions do you have?",
      "answerTemplate": "I have {{answer}}",
      "pause": 1000,
      "choices": [
        {
          "id": "justOne",
          "label": "Just one",
          "nextQuestionId": "2.1"
        },
        {
          "id": "lessThanFive",
          "label": "Less than 5",
          "todosToGenerate": ["showUsYourPensions"]
        },
        {
          "id": "moreThanFive",
          "label": "More than 5",
          "todosToGenerate": ["showUsYourPensions"]
        },
        {
          "id": "dontKnow",
          "label": "I don't know",
          "todosToGenerate": ["consolidation"]
        }
      ]
    },
    {
      "id": "2.1",
      "answerType": "multipleChoice",
      "content": "Just one pension? Are you sure?",
      "avatar": "john",
      "answerTemplate": "{{answer}}",
      "pause": 1000,
      "choices": [
        {
          "id": "yep",
          "label": "Yes, just one"
        },
        {
          "id": "nope",
          "label": "Actually, it might be more"
        }
      ]
    },
    {
      "id": "3",
      "answerType": "number",
      "content": "Do you know (roughly) what your total pension pot size is, in pounds?",
      "avatar": "john",
      "answerTemplate": "{{answer}}",
      "saveToFactFindAs": "countdown__fund_value"
    },
    {
      "id": "4",
      "answerType": "multipleChoice",
      "content": "When did you last get a pension valuation?",
      "answerTemplate": "{{answer}}",
      "pause": 1000,
      "choices": [
        {
          "id": "lastMonths",
          "label": "Within the last few months"
        },
        {
          "id": "thisYear",
          "label": "Within the last year"
        },
        {
          "id": "longer",
          "label": "Longer than a year ago",
          "todosToGenerate": ["showUsYourPensions"]
        }
      ]
    },
    {
      "id": "5",
      "answerType": "multipleChoice",
      "content": "Do you have any 'final salary' pensions?",
      "avatar": "john",
      "answerTemplate": "{{answer}}",
      "pause": 1000,
      "choices": [
        {
          "id": "yesFS",
          "label": "Yes"
        },
        {
          "id": "noFS",
          "label": "No"
        },
        {
          "id": "unknownFS",
          "label": "I'm not sure",
          "todosToGenerate": ["showUsYourPensions"]
        }
      ]
    },
    {
      "id": "6",
      "answerType": "multipleChoice",
      "content": "Do you know how much your state pension will give you in retirement?",
      "avatar": "john",
      "answerTemplate": "{{answer}}",
      "pause": 1000,
      "choices": [
        {
          "id": "yesStatePension",
          "label": "Yes"
        },
        {
          "id": "noStatePension",
          "label": "I'm not sure",
          "todosToGenerate": ["statePensionForecast"]
        }
      ]
    },
    {
      "id": "7",
      "content": "I will show you how much your pensions will give you and when you can access the money.",
      "avatar": "john",
      "pause": 1200
    },
    {
      "id": "8",
      "content": "Just a few more questions, then we can share it with you.",
      "pause": 1200
    },
    {
      "id": "9",
      "answerType": "multipleChoice",
      "content": "What's your gender",
      "answerTemplate": "{{answer}}",
      "saveToFactFindAs": "personal__gender",
      "pause": 1000,
      "choices": [
        {
          "id": "m",
          "label": "Male"
        },
        {
          "id": "f",
          "label": "Female"
        }
      ]
    },
    {
      "id": "9.1",
      "answerType": "date",
      "content": "We need to be more specific, what's your date of birth?",
      "avatar": "john",
      "answerTemplate": "{{answer}}",
      "saveToFactFindAs": "personal__dob",
      "pause": 1000
    },
    {
      "id": "9.2",
      "answerType": "text",
      "content": "What's your first name?",
      "avatar": "john",
      "answerTemplate": "{{answer}}",
      "saveToFactFindAs": "personal__first_name",
      "pause": 1000
    },
    {
      "id": "9.3",
      "answerType": "text",
      "content": "What's your last name?",
      "avatar": "john",
      "answerTemplate": "{{answer}}",
      "saveToFactFindAs": "personal__last_name",
      "pause": 1000
    },
    {
      "id": "10",
      "answerType": "number",
      "content": "At what age do you want to retire?",
      "avatar": "john",
      "answerTemplate": "{{answer}}",
      "saveToFactFindAs": "countdown__selected_retirement_age"
    },
    {
      "id": "11",
      "content": "Thank you",
      "avatar": "john",
      "pause": 1200,
      "answerType": "multipleChoice",
      "choices": [
        {
          "id": "regularFocused",
          "label": "Back to my to-do list",
          "validate": ["countdown"],
          "endState": true
        }
      ]
    }
  ]
}
