{
  "id": "taxExample",
  "questions": [
    {
      "id": "1",
      "content": "First, I need to know a few things about you",
      "avatar": "john",
      "pause": 1000
    },
    {
      "id": "2",
      "content": "What is your gross salary?",
      "avatar": "john",
      "pause": 1200,
      "answerType": "number",
      "answerTemplate": "£{{answer}}",
      "api": "incomeTax",
      "apiMapping": {
        "2": "gross_income"
      },
      "apiResponseValueField": "netSalaryPerMonth",
      "contentToShowAfterAnswer": "We reckon that's about £{{apiResponseValue}} per month"
    }
  ]
}
